﻿[{
	"_id": "co-01",
	"_parentId": "course",
	"height":"570",
	"_type": "page",
	"_graphic": {
		"alt": "",
		"src": "course/en/images/00_contentObjects/landing_01.png"
	},
	"durationLabel": "Длительность:",
	"duration": "2 мин",
	"_classes": "",
	"displayTitle": "Введение",
	"title": "Введение",
	"body": "Узнайте, как разработать приложение для общения с существующими и потенциальными клиентами на платформе Messenger.",
	"linkText": "Смотреть",
	"_pageLevelProgress": {
			"_isEnabled": true
		}
},
{
	"_id": "co-02",
	"_parentId": "course",
	"height":"570",
	"_type": "page",
	"_graphic": {
		"alt": "",
		"src": "course/en/images/00_contentObjects/landing_02.png"
	},
	"durationLabel": "Длительность:",
	"duration": "4 мин",
	"_classes": "",
	"displayTitle": "Информация об аудитории",
	"title": "Информация об аудитории",
	"body": "Определите, что интересует ваших клиентов.",
	"linkText": "Смотреть",
	"_pageLevelProgress": {
			"_isEnabled": true
		}
},
{
	"_id": "co-03",
	"_parentId": "course",
	"height":"570",
	"_type": "page",
	"_graphic": {
		"alt": "",
		"src": "course/en/images/00_contentObjects/landing_03.png"
	},
	"durationLabel": "Длительность:",
	"duration": "5 мин",
	"_classes": "",
	"displayTitle": "Определите цель и тип проекта",
	"title": "Определите цель и тип проекта",
	"body": "Определите, какую задачу вы хотите решить с помощью Messenger (повысить узнаваемость, улучшить качество обслуживания и т.&#160;д.).",
	"linkText": "Смотреть",
	"_pageLevelProgress": {
			"_isEnabled": true
		}
},
{
	"_id": "co-04",
	"_parentId": "course",
	"height":"570",
	"_type": "page",
	"_graphic": {
		"alt": "",
		"src": "course/en/images/00_contentObjects/landing_04.png"
	},
	"durationLabel": "Длительность:",
	"duration": "4 мин",
	"_classes": "",
	"displayTitle": "Стратегия разработки",
	"title": "Стратегия разработки",
	"body": "Определите, сможете ли вы самостоятельно разработать приложение или вам потребуется помощь.",
	"linkText": "Смотреть",
	"_pageLevelProgress": {
			"_isEnabled": true
		}
},
{
	"_id": "co-05",
	"_parentId": "course",
	"height":"570",
	"_type": "page",
	"_graphic": {
		"alt": "",
		"src": "course/en/images/00_contentObjects/landing_05.png"
	},
	"durationLabel": "Длительность:",
	"duration": "4 мин",
	"_classes": "",
	"displayTitle": "Создание и запуск приложения",
	"title": "Создание и запуск приложения",
	"body": "Четыре важных момента, о которых стоит помнить при разработке.",
	"linkText": "Смотреть",
	"_pageLevelProgress": {
			"_isEnabled": true
		}
},
{
    "_id": "co-06",
	"_parentId": "course",
	"height":"570",
	"_type": "page",
	"_graphic": {
		"alt": "",
		"src": "course/en/images/00_contentObjects/landing_06.png"
	},
	"durationLabel": "Длительность:",
	"duration": "4 мин",
	"_classes": "",
	"displayTitle": "Как побудить клиентов общаться с вами",
	"title": "Как побудить клиентов общаться с вами",
	"body": "Заинтересуйте клиентов и предложите им общаться в Messenger.",
	"linkText": "Смотреть",
	"_pageLevelProgress": {
			"_isEnabled": true
		}
},
{
    "_id": "co-07",
	"_parentId": "course",
	"height":"570",
	"_type": "page",
	"_graphic": {
		"alt": "",
		"src": "course/en/images/00_contentObjects/landing_07.png"
	},
	"durationLabel": "Длительность:",
	"duration": "4 мин",
	"_classes": "",
	"displayTitle": "Постоянное стремление к совершенству",
	"title": "Постоянное стремление к совершенству",
	"body": "Регулярно тестируйте и улучшайте свое приложение, чтобы извлечь максимальную выгоду.",
	"linkText": "Смотреть",
	"_pageLevelProgress": {
			"_isEnabled": true
		}
},
{
	"_id": "co-08",
	"_parentId": "course",
	"height":"570",
	"_type": "page",
	"_graphic": {
		"alt": "",
		"src": "course/en/images/00_contentObjects/landing_08.png"
	},
	"durationLabel": "Длительность:",
	"duration": "3 мин",
	"_classes": "",
	"displayTitle": "Истории успеха",
	"title": "Истории успеха",
	"body": "Узнайте, какие приложения для Messenger разработали и успешно использовали компании.",
	"linkText": "Смотреть",
	"_pageLevelProgress": {
			"_isEnabled": true
        		}
},
{
	"_id": "co-09",
	"_parentId": "course",
	"height":"570",
	"_type": "page",
	"_graphic": {
		"alt": "",
		"src": "course/en/images/00_contentObjects/landing_09.png"
	},
	"durationLabel": "Длительность:",
	"duration": "3 мин",
	"_classes": "",
	"displayTitle": "Проверка знаний",
	"title": "Проверка знаний",
	"body": "Пройдите небольшой тест, чтобы узнать, насколько хорошо вы усвоили пройденное.",
	"linkText": "Смотреть",
	"_pageLevelProgress": {
			"_isEnabled": true
		}
}
]